Week 2 Exploratory Analysis of SwiftKey data
…
## Sample 10% of words 
sub_lines <- all_lines[sample(1:nlines, nlines*0.1, replace = FALSE)] 

sub_lines <- sub_lines %>% stringr::str_replace_all(pattern = "\n", replacement = "")

text_df <- tibble(Text = sub_lines) ## put neatly into a df

Note that the grams overlap, a neat way to

n_gram <- text_df %>% unnest_tokens(output = word, input = Text, token = "ngrams", n= 3) 
n_gram 

## # A tibble: 3,589,732 x 1
##    word               
##    <chr>              
##  1 the sound of       
##  2 sound of frogs     
##  3 of frogs calling   
##  4 frogs calling down 
##  5 calling down rain  
##  6 <NA>               
##  7 today it's our     
##  8 it's our first     
##  9 our first challenge
## 10 first challenge for
## #  with 3,589,722 more rows
